{
	"info": {
		"_postman_id": "506dbcf1-271b-4691-bc07-cd9ddd1cbd38",
		"name": "BiTaksi",
		"schema": "https://schema.getpostman.com/json/collection/v2.0.0/collection.json"
	},
	"item": [
		{
			"name": "Login",
			"request": {
				"method": "POST",
				"header": [],
				"body": {
					"mode": "formdata",
					"formdata": [
						{
							"key": "username",
							"value": "bitaksi",
							"type": "text"
						},
						{
							"key": "password",
							"value": "bipass",
							"type": "text"
						}
					]
				},
				"url": "localhost:8080/login"
			},
			"response": []
		},
		{
			"name": "GetTrips",
			"request": {
				"auth": {
					"type": "bearer",
					"bearer": {
						"token": "eyJhbGciOiJIUzI1NiIsInR5cCI6IkpXVCJ9.eyJhZG1pbiI6dHJ1ZSwiZXhwIjoxNjEzMzgwMzAwLCJuYW1lIjoiQml0YWtzaSBhZG1pbiJ9.IzCrHCmEK2uIMTRv8RM3Pb9w5GxlUnrnE2hFLewR2og"
					}
				},
				"method": "GET",
				"header": [],
				"url": {
					"raw": "https://bitaksi-case.herokuapp.com/trips?longitude=-97.38887025&latitude=31.17821068&radius=5&start_date=2016-07-17T00:00:00Z&end_date=2016-07-18T00:00:00Z",
					"protocol": "https",
					"host": [
						"bitaksi-case",
						"herokuapp",
						"com"
					],
					"path": [
						"trips"
					],
					"query": [
						{
							"key": "longitude",
							"value": "-97.38887025"
						},
						{
							"key": "latitude",
							"value": "31.17821068"
						},
						{
							"key": "radius",
							"value": "5"
						},
						{
							"key": "start_date",
							"value": "2016-07-17T00:00:00Z"
						},
						{
							"key": "end_date",
							"value": "2016-07-18T00:00:00Z"
						}
					]
				}
			},
			"response": []
		},
		{
			"name": "GetTripVehicles",
			"request": {
				"auth": {
					"type": "bearer",
					"bearer": {
						"token": "eyJhbGciOiJIUzI1NiIsInR5cCI6IkpXVCJ9.eyJhZG1pbiI6dHJ1ZSwiZXhwIjoxNjEzMzgwMzAwLCJuYW1lIjoiQml0YWtzaSBhZG1pbiJ9.IzCrHCmEK2uIMTRv8RM3Pb9w5GxlUnrnE2hFLewR2og"
					}
				},
				"method": "GET",
				"header": [],
				"url": {
					"raw": "https://bitaksi-case.herokuapp.com/trips/vehicles?longitude=-97.38887025&latitude=31.17821068&radius=5",
					"protocol": "https",
					"host": [
						"bitaksi-case",
						"herokuapp",
						"com"
					],
					"path": [
						"trips",
						"vehicles"
					],
					"query": [
						{
							"key": "longitude",
							"value": "-97.38887025"
						},
						{
							"key": "latitude",
							"value": "31.17821068"
						},
						{
							"key": "radius",
							"value": "5"
						}
					]
				}
			},
			"response": []
		},
		{
			"name": "GetTripDistances",
			"request": {
				"auth": {
					"type": "bearer",
					"bearer": {
						"token": "eyJhbGciOiJIUzI1NiIsInR5cCI6IkpXVCJ9.eyJhZG1pbiI6dHJ1ZSwiZXhwIjoxNjEzMzgwMzAwLCJuYW1lIjoiQml0YWtzaSBhZG1pbiJ9.IzCrHCmEK2uIMTRv8RM3Pb9w5GxlUnrnE2hFLewR2og"
					}
				},
				"method": "GET",
				"header": [],
				"url": {
					"raw": "https://bitaksi-case.herokuapp.com/trips/distances?longitude=-97.38887025&latitude=31.17821068&radius=5",
					"protocol": "https",
					"host": [
						"bitaksi-case",
						"herokuapp",
						"com"
					],
					"path": [
						"trips",
						"distances"
					],
					"query": [
						{
							"key": "longitude",
							"value": "-97.38887025"
						},
						{
							"key": "latitude",
							"value": "31.17821068"
						},
						{
							"key": "radius",
							"value": "5"
						}
					]
				}
			},
			"response": []
		}
	]
}